<?xml version="1.0" encoding="utf-8"?>
<!-- Generator: Adobe Illustrator 19.0.1, SVG Export Plug-In . SVG Version: 6.00 Build 0)  -->
<svg version="1.1" id="Layer_1" xmlns="http://www.w3.org/2000/svg" xmlns:xlink="http://www.w3.org/1999/xlink" x="0px" y="0px"
	 viewBox="0 0 80.3 80" style="enable-background:new 0 0 80.3 80;" xml:space="preserve">
<style type="text/css">
	.st0{fill:#FFFFFF;}
	.st1{fill:#EC2227;}
</style>
<g>
	<g>
		<path class="st0" d="M21.7,35.7c-1.8-2-2.7-4.7-2.7-8.1c0-3.6,1-6.3,3-8.2c2-2,4.7-2.9,8.2-2.9c2.9,0,5.1,0.7,6.7,2.2
			c1.5,1.5,2.4,3,2.7,4.4l-4.9,1.7c-0.2-1-0.7-1.9-1.5-2.7c-0.7-0.8-1.8-1.3-3.2-1.3c-3.2,0-4.6,2.4-4.6,7.1s1.7,6.5,4.8,6.5
			c2.5,0,3.9-0.8,4.5-1.5v-2.1h-5V27h10.1v11.5h-3.2l-1.1-2.1c-0.5,0.5-1.3,1.1-2.4,1.7s-2.4,0.8-4,0.8C26,38.8,23.5,37.7,21.7,35.7
			z"/>
		<path class="st0" d="M49.6,38.4V16.9h6.1v21.6H49.6z"/>
		<path class="st0" d="M44.7,63.1V41.6h16.5v4.2H50.8v4.4h8.4v4.2h-8.4v4.5h10.9v4.2L44.7,63.1L44.7,63.1z"/>
	</g>
	<g>
		<g>
			<path class="st0" d="M9.6,53.2c0.2,0.4,0.3,0.9,0.3,1.3l-1.1,0.3c0-0.4-0.1-0.9-0.3-1.3c-0.2-0.6-0.7-0.9-1.2-0.7
				c-1.1,0.5,0.4,2.7-1.6,3.5c-1,0.4-2.1-0.1-2.7-1.5c-0.1-0.3-0.3-0.7-0.3-1.1l1-0.3c0,0.4,0.1,0.8,0.3,1.1
				c0.3,0.7,0.7,0.9,1.1,0.7c1-0.4-0.3-2.8,1.5-3.5C7.8,51.2,9,51.7,9.6,53.2z"/>
			<path class="st0" d="M2.4,48.7l5.2-1.3l0.3,1.2l-5.2,1.3l0.4,1.6l-1,0.3L1,47.3l1-0.3L2.4,48.7z"/>
			<path class="st0" d="M7.1,44.6l-6.4,0.6l-0.3-3.5l1-0.1l0.2,2.3l1.6-0.1L3,41.6l1-0.1l0.2,2.1l1.7-0.1l-0.2-2.3l1-0.1L7.1,44.6z"
				/>
			<path class="st0" d="M7,36.6L6.9,38l-6.6,1.7l0.1-1.3l3.8-0.9c0.4-0.1,0.8-0.2,1.3-0.3l0,0c-0.4-0.1-0.8-0.3-1.3-0.5l-3.6-1.6
				l0.1-1.3L7,36.6z"/>
			<path class="st0" d="M7.4,33.4l-6.2-1.6l0.9-3.4l1,0.3l-0.6,2.2L4,31.3l0.5-2.1l1,0.3L5,31.6L6.7,32l0.6-2.2l1,0.3L7.4,33.4z"/>
			<path class="st0" d="M10.3,25.1l-3.7,0.3c-0.6,0-1.1,0-1.5,0c0.5,0.2,1.4,0.6,2.1,0.9l2.1,1l-0.5,1.1l-5.9-2.7l0.7-1.5L7.1,24
				c0.6,0,1.2-0.1,1.7-0.1c-0.6-0.2-1.7-0.7-2.4-1L4.6,22l0.5-1.1l5.9,2.7L10.3,25.1z"/>
			<path class="st0" d="M15.6,14.9c0.3-0.1,0.7-0.1,1-0.2l0.2,1.2c-0.5,0.1-0.9,0.2-1.2,0.3c-0.1,0.7-0.5,1.4-1,2.1
				c-0.9,1-1.8,1-2.4,0.4c-0.5-0.4-0.6-1-0.4-1.8c-0.5,0-1,0-1.3-0.3c-0.6-0.5-0.6-1.4,0.1-2.2c0.7-0.7,1.4-0.9,2-0.4
				c0.5,0.4,0.5,1,0.4,1.7c0.5,0,1.1-0.1,1.7-0.3c-0.1-0.5-0.4-1-0.9-1.4l0.8-0.9C15,13.5,15.4,14.2,15.6,14.9z M11.1,14.9
				c-0.2,0.2-0.2,0.5,0,0.7c0.1,0.1,0.4,0.2,0.8,0.1c0-0.3,0-0.7-0.2-0.9C11.6,14.6,11.3,14.7,11.1,14.9z M12.6,16.7
				c0,0.3,0,0.7,0.2,0.9c0.3,0.3,0.7,0.2,1.1-0.2c0.3-0.3,0.4-0.7,0.5-1C13.8,16.5,13,16.7,12.6,16.7z"/>
			<path class="st0" d="M24.1,10.6l-1.1-0.9L21,11l0.3,1.3l-1,0.7l-1.4-6.7L20,5.6l5.3,4.3L24.1,10.6z M20.9,8
				c-0.3-0.2-0.5-0.4-0.8-0.7l0,0c0.1,0.3,0.2,0.7,0.3,1.1l0.3,1.7l1.5-1L20.9,8z"/>
			<path class="st0" d="M26.4,9.5l-2.4-6l1.1-0.4l2,4.9L29,7.3l0.4,1L26.4,9.5z"/>
			<path class="st0" d="M30.6,7.9l-1.6-6.2l3.4-0.8l0.3,1l-2.2,0.6l0.4,1.5L33,3.4l0.3,1l-2.1,0.5l0.4,1.7L33.8,6l0.3,1L30.6,7.9z"
				/>
			<path class="st0" d="M39.3,6.5l-1.6-2.3l-1.2,2.4L35,6.7l1.8-3.4l-2.1-2.9l1.4-0.1l1.5,2.1l1.1-2.4L40.1,0l-1.7,3.3l2.4,3.1
				L39.3,6.5z"/>
			<path class="st0" d="M45.8,6.9l-0.3-1.3l-2.4-0.3l-0.6,1.3l-1.2-0.1l3-6.1l1.4,0.2l1.5,6.6L45.8,6.9z M45,2.8
				c-0.1-0.3-0.1-0.7-0.2-1l0,0c-0.1,0.3-0.3,0.7-0.4,1l-0.8,1.6l1.8,0.2L45,2.8z"/>
			<path class="st0" d="M51.8,8.5L51,4.8c-0.1-0.6-0.2-1.1-0.2-1.5c-0.1,0.5-0.4,1.5-0.7,2.2l-0.7,2.2l-1.1-0.4l2-6.1l1.5,0.5
				l0.7,3.5c0.1,0.6,0.2,1.1,0.3,1.7c0.2-0.6,0.5-1.7,0.7-2.5l0.6-1.9l1.1,0.4l-2,6.1L51.8,8.5z"/>
			<path class="st0" d="M56.6,10.7c-0.6-0.3-1-0.7-1.5-1l3.2-5.5c0.4,0.2,1.1,0.6,1.8,1c1.7,1,2.4,2.4,1.3,4.4
				C60.2,11.5,58.4,11.8,56.6,10.7z M59.5,6.1c-0.3-0.1-0.5-0.3-0.7-0.3l-2.2,3.7c0.1,0.1,0.3,0.3,0.6,0.4c1,0.6,2.1,0.4,2.9-0.9
				C60.8,7.8,60.8,6.8,59.5,6.1z"/>
			<path class="st0" d="M63,15.2l0.3-3.2l0,0l-1.7,2l-1-0.8l4.2-4.9c0.4,0.3,0.9,0.7,1.4,1.2c1.1,0.9,1.4,1.9,0.6,2.9
				c-0.6,0.7-1.6,0.8-2.4,0.3c0,0.3,0,0.6,0,0.9l-0.2,2.7L63,15.2z M65.5,10.2c-0.1-0.1-0.3-0.2-0.4-0.3l-1.2,1.4
				c0,0,0.2,0.2,0.3,0.3c0.6,0.5,1.2,0.5,1.6,0C66.2,11.1,66.1,10.7,65.5,10.2z"/>
			<path class="st0" d="M67.6,20.2l0.7-1.2l-1.5-1.9l-1.3,0.5l-0.8-1l6.4-2.3l0.9,1.1l-3.6,5.8L67.6,20.2z M69.8,16.7
				c0.2-0.3,0.4-0.6,0.6-0.9l0,0c-0.3,0.1-0.7,0.3-1,0.4l-1.7,0.6l1.1,1.4L69.8,16.7z"/>
			<path class="st0" d="M71.4,27.5c-0.9-2,0.2-3.3,1.7-4c1.9-0.8,3.6-0.4,4.4,1.6c0.2,0.4,0.3,0.9,0.4,1.3l-1.1,0.3
				c0-0.4-0.2-0.9-0.3-1.3c-0.5-1.1-1.5-1.3-2.7-0.8c-1.3,0.6-1.8,1.4-1.3,2.6c0.2,0.3,0.5,0.8,0.7,1l-1,0.6
				C72,28.6,71.7,28.1,71.4,27.5z"/>
			<path class="st0" d="M73,32.7c-0.4-1.9,0.6-3.1,2.5-3.6c2.1-0.5,3.6,0.7,4,2.4c0.3,1.7-0.4,3.1-2.5,3.5
				C75,35.5,73.4,34.4,73,32.7z M78.4,31.6c-0.2-0.9-1-1.5-2.5-1.2c-1.3,0.3-2.1,1-1.8,2.1c0.2,0.8,1,1.6,2.5,1.2
				C78.1,33.4,78.7,32.7,78.4,31.6z"/>
			<path class="st0" d="M74,41.1l2.8,0l0-2.7l-2.8,0v-1.2l6.4,0v1.2l-2.6,0l0,2.7l2.6,0v1.2L74,42.3V41.1z"/>
			<path class="st0" d="M73.7,44.2l6.3,1.1l-0.6,3.4l-1-0.2l0.4-2.2l-1.6-0.3l-0.4,2.1l-1-0.2l0.4-2.1l-1.7-0.3l-0.4,2.2l-1-0.2
				L73.7,44.2z"/>
			<path class="st0" d="M71.5,52.7l3.7-0.7c0.6-0.1,1.1-0.1,1.5-0.2c-0.5-0.2-1.5-0.5-2.2-0.7l-2.1-0.8l0.4-1.1l6,2.2L78.2,53
				l-3.5,0.6c-0.6,0.1-1.2,0.2-1.7,0.2c0.6,0.2,1.7,0.6,2.4,0.8l1.9,0.7l-0.4,1.1l-6-2.2L71.5,52.7z"/>
		</g>
		<g>
			<path class="st0" d="M14.5,63l-1.2,1.1l1.4,1.5l-0.7,0.7l-1.4-1.5l-2,1.8l-0.8-0.9l4.8-4.3l2.3,2.6L16,64.6L14.5,63z"/>
			<path class="st0" d="M15.7,71.6c-1.6-1.2-1.5-2.8-0.3-4.4c1.3-1.7,3.2-1.8,4.6-0.7c1.3,1,1.7,2.6,0.3,4.4
				C19,72.5,17.1,72.7,15.7,71.6z M19.2,67.4c-0.7-0.5-1.8-0.5-2.7,0.7c-0.8,1.1-1,2.1,0,2.8c0.7,0.5,1.8,0.6,2.7-0.7
				C20.1,69,20.1,68,19.2,67.4z"/>
			<path class="st0" d="M22.8,76.1c-1.8-0.9-1.7-2.1-1.2-3.2l1.8-3.8l1.1,0.5l-1.8,3.7c-0.3,0.7-0.3,1.3,0.6,1.8
				c0.9,0.4,1.4,0.2,1.9-0.7l1.7-3.6l1.1,0.5l-1.7,3.5C25.6,76.5,24.3,76.8,22.8,76.1z"/>
			<path class="st0" d="M31.9,79.1l-1-3.6c-0.1-0.5-0.3-1-0.3-1.5c-0.1,0.5-0.3,1.5-0.5,2.3l-0.6,2.2l-1.2-0.3l1.5-6.2l1.6,0.4
				l1,3.4c0.2,0.6,0.3,1.1,0.4,1.7c0.1-0.7,0.3-1.7,0.6-2.5l0.5-2l1.2,0.3l-1.5,6.2L31.9,79.1z"/>
			<path class="st0" d="M38.4,80c-0.7,0-1.3-0.1-1.8-0.1l0.2-6.4c0.5,0,1.3,0,2.1,0c2,0,3.2,1,3.1,3.2C42,79,40.5,80.1,38.4,80z
				 M38.8,74.6c-0.3,0-0.6,0-0.7,0L38,78.9c0.2,0,0.4,0,0.7,0.1c1.2,0,2.1-0.6,2.1-2.1C40.8,75.4,40.3,74.6,38.8,74.6z"/>
			<path class="st0" d="M48,79.3l-0.7-1.2L45,78.4l-0.3,1.3L43.5,80l1.3-6.7l1.4-0.2l3.2,6L48,79.3z M46,75.6
				c-0.2-0.3-0.3-0.6-0.4-1l0,0c0,0.3-0.1,0.7-0.1,1.1l-0.3,1.7l1.8-0.3L46,75.6z"/>
			<path class="st0" d="M51.6,72.8l1.7,5.1l-1.2,0.4l-1.7-5.1l-1.6,0.5l-0.3-1l4.4-1.4l0.3,1L51.6,72.8z"/>
			<path class="st0" d="M56.9,76.4l-2.7-5.8l1.1-0.5l2.7,5.8L56.9,76.4z"/>
			<path class="st0" d="M62.8,73.2c-1.6,1.1-3.1,0.6-4.2-1c-1.2-1.7-0.7-3.6,0.7-4.6c1.4-1,3-0.8,4.2,1
				C64.7,70.4,64.3,72.3,62.8,73.2z M59.8,68.6c-0.7,0.5-1,1.5-0.2,2.7c0.8,1.1,1.7,1.6,2.7,0.9c0.7-0.5,1.1-1.5,0.2-2.8
				C61.6,68.3,60.7,68,59.8,68.6z"/>
			<path class="st0" d="M70,66.9l-3.7-0.9c-0.5-0.1-1-0.3-1.5-0.4c0.4,0.3,1.2,1,1.7,1.6l1.7,1.6l-0.8,0.9l-4.6-4.4l1.1-1.2l3.4,0.8
				c0.6,0.1,1.1,0.3,1.7,0.5c-0.5-0.4-1.3-1.2-1.9-1.7l-1.4-1.4l0.8-0.9l4.6,4.4L70,66.9z"/>
		</g>
	</g>
	<g>
		<path class="st1" d="M30.1,64.1c8.2-6.7,12.2-13,12.2-16.3c0-3.4-2.7-6.1-6.1-6.1s-6.1,2.7-6.1,6.1h0c0-3.4-2.7-6.1-6.1-6.1
			s-6.1,2.7-6.1,6.1C17.9,51.1,21.9,57.3,30.1,64.1"/>
	</g>
</g>
</svg>
